﻿


EVENT   1
 PAGE   1
  281(1)
  250(bytes(0x04,0x08,0x6f,0x3a,0x0c,0x52,0x50,0x47,0x3a,0x3a,0x53,0x45,0x08,0x3a,0x0a,0x40,0x6e,0x61,0x6d,0x65,0x49,0x22,0x09,0x4d,0x6f,0x76,0x65,0x06,0x3a,0x06,0x45,0x54,0x3a,0x0b,0x40,0x70,0x69,0x74,0x63,0x68,0x69,0x69,0x3a,0x0c,0x40,0x76,0x6f,0x6c,0x75,0x6d,0x65,0x69,0x55))
  TeleportPlayer(0,23,22,10,0,0)
  0()



EVENT   2
 PAGE   1
  281(1)
  250(bytes(0x04,0x08,0x6f,0x3a,0x0c,0x52,0x50,0x47,0x3a,0x3a,0x53,0x45,0x08,0x3a,0x0a,0x40,0x6e,0x61,0x6d,0x65,0x49,0x22,0x09,0x4d,0x6f,0x76,0x65,0x06,0x3a,0x06,0x45,0x54,0x3a,0x0b,0x40,0x70,0x69,0x74,0x63,0x68,0x69,0x69,0x3a,0x0c,0x40,0x76,0x6f,0x6c,0x75,0x6d,0x65,0x69,0x55))
  TeleportPlayer(0,23,23,10,0,0)
  0()



EVENT   3
 PAGE   1
  281(1)
  250(bytes(0x04,0x08,0x6f,0x3a,0x0c,0x52,0x50,0x47,0x3a,0x3a,0x53,0x45,0x08,0x3a,0x0a,0x40,0x6e,0x61,0x6d,0x65,0x49,0x22,0x09,0x4d,0x6f,0x76,0x65,0x06,0x3a,0x06,0x45,0x54,0x3a,0x0b,0x40,0x70,0x69,0x74,0x63,0x68,0x69,0x69,0x3a,0x0c,0x40,0x76,0x6f,0x6c,0x75,0x6d,0x65,0x69,0x55))
  TeleportPlayer(0,23,22,10,0,0)
  0()



EVENT   4
 PAGE   1
  281(1)
  250(bytes(0x04,0x08,0x6f,0x3a,0x0c,0x52,0x50,0x47,0x3a,0x3a,0x53,0x45,0x08,0x3a,0x0a,0x40,0x6e,0x61,0x6d,0x65,0x49,0x22,0x09,0x4d,0x6f,0x76,0x65,0x06,0x3a,0x06,0x45,0x54,0x3a,0x0b,0x40,0x70,0x69,0x74,0x63,0x68,0x69,0x69,0x3a,0x0c,0x40,0x76,0x6f,0x6c,0x75,0x6d,0x65,0x69,0x55))
  TeleportPlayer(0,23,23,10,0,0)
  0()



EVENT   5
 PAGE   1
  0()



EVENT   6
 PAGE   1
  ScrollMap(4,5,4)
  Wait(90)
  PictureDisplay(5,"80_cassandra_st31",0,0,-150,-20,100,100,0,0)
  PictureDisplay(6,"80_emily_st31",0,0,150,20,100,100,0,0)
  PictureMove(5,null,0,0,-150,-20,100,100,255,0,30,false)
  PictureMove(6,null,0,0,150,20,100,100,255,0,30,true)
  241(bytes(0x04,0x08,0x6f,0x3a,0x0d,0x52,0x50,0x47,0x3a,0x3a,0x42,0x47,0x4d,0x08,0x3a,0x0a,0x40,0x6e,0x61,0x6d,0x65,0x49,0x22,0x10,0x73,0x63,0x65,0x6e,0x65,0x5f,0x63,0x6f,0x6d,0x69,0x32,0x06,0x3a,0x06,0x45,0x54,0x3a,0x0c,0x40,0x76,0x6f,0x6c,0x75,0x6d,0x65,0x69,0x69,0x3a,0x0b,0x40,0x70,0x69,0x74,0x63,0x68,0x69,0x69))
  If(0,4,0)
   ShowMessageFace("cassandra_fc2",0,0,2,1)
   ShowMessage("\\n<Cassandra>So how did you end up looking like that? Ufufufu...")
   ShowMessageFace("emily_fc1",4,0,2,2)
   ShowMessage("\\n<Emily>I'm about to bust out laughing... Hehe.")
   ShowMessageFace("alice_fc5",6,0,2,3)
   ShowMessage("\\n<Alice>Wait, what happened to YOU TWO!?")
   0()
  EndIf()
  If(0,5,0)
   ShowMessageFace("cassandra_fc2",0,0,2,4)
   ShowMessage("\\n<Cassandra>You're a lot smaller than ever... Very interesting. Ufufufu...")
   ShowMessageFace("emily_fc1",4,0,2,5)
   ShowMessage("\\n<Emily>I'm about to bust out laughing... Hehe.")
   ShowMessageFace("iriasu_fc4",5,0,2,6)
   ShowMessage("\\n<Ilias>You two are even smaller!")
   0()
  EndIf()
  221()
  PictureClear(5)
  PictureClear(6)
  Wait(60)
  TeleportPlayer(0,24,77,83,4,0)
  222()
  Wait(30)
  PictureDisplay(5,"80_cassandra_st31",0,0,-150,-20,100,100,0,0)
  PictureDisplay(6,"80_emily_st31",0,0,150,20,100,100,0,0)
  PictureMove(5,null,0,0,-150,-20,100,100,255,0,30,false)
  PictureMove(6,null,0,0,150,20,100,100,255,0,30,true)
  ShowMessageFace("cassandra_fc2",0,0,2,7)
  ShowMessage("\\n<Cassandra>I'm sure you've already heard how I was defeated by Alipheese the 17th.")
  If(0,4,0)
   ShowMessageFace("alice_fc5",0,0,2,8)
   ShowMessage("\\n<Alice>Mmn... Rumors of her exploits have made their way around. So your present condition is the result of losing to her?")
   0()
  EndIf()
  If(0,5,0)
   ShowMessageFace("iriasu_fc4",2,0,2,9)
   ShowMessage("\\n<Ilias>Rumors of the 17th's exploits have made their way around. So your pitiful condition is the result of losing to her?")
   0()
  EndIf()
  ShowMessageFace("cassandra_fc2",0,0,2,10)
  ShowMessage("\\n<Cassandra>Not exactly...\nI only suffered heavy damage thanks to her. She did, however, force me to recuperate here in my mansion.")
  ShowMessageFace("cassandra_fc2",0,0,2,11)
  ShowMessage("\\n<Cassandra>Gah! Just thinking about it makes me seethe with rage!")
  ShowMessageFace("emily_fc1",4,0,2,12)
  ShowMessage("\\n<Emily>Oh mother, calm down.\nAllow me to explain for her.")
  ShowMessageFace("emily_fc1",4,0,2,13)
  ShowMessage("\\n<Emily>While mother was weakened, the second strongest monster living in the village staged a revolt.")
  ShowMessageFace("emily_fc1",4,0,2,14)
  ShowMessage("\\n<Emily>I'm talking about Candy, the Queen of Sweets.\nShe stole our powers and left us looking like this.")
  If(0,4,0)
   ShowMessageFace("alice_fc5",2,0,2,15)
   ShowMessage("\\n<Alice>Candy, the Queen of Sweets, is a fairly well-known monster. So she was hiding out in this village all this time?")
   0()
  EndIf()
  If(0,5,0)
   ShowMessageFace("iriasu_fc4",2,0,2,16)
   ShowMessage("\\n<Ilias>Candy? She certainly has a reputation among monsters. So you say she was hiding out in this village?")
   0()
  EndIf()
  ShowMessageFace("cassandra_fc2",0,0,2,17)
  ShowMessage("\\n<Cassandra>Damn her! She converted our energy into sweets and gobbled it up! Then a large number of my people left the village with her! Gaaaah!")
  ShowMessageFace("emily_fc1",4,0,2,18)
  ShowMessage("\\n<Emily>Mother, you're getting worked up...")
  If(4,53,0)
   ShowMessageFace("slime_fc1",2,0,2,19)
   ShowMessage("\\n<Lime>Is she okay?")
   0()
  EndIf()
  ShowMessageFace("emily_fc1",4,0,2,20)
  ShowMessage("\\n<Emily>After stealing our power, Candy set up a base in the mountains nearby. With so many of the monsters from this village obeying her, she's styling herself as king of the mountain or something.")
  ShowMessageFace("cassandra_fc2",0,0,2,21)
  ShowMessage("\\n<Cassandra>Will you retrieve our power from Candy?\nOf course, we'll make it worth your while.")
  If(0,6,0)
   ShowMessageFace("sonia_fc2",2,0,2,22)
   ShowMessage("\\n<Sonya>Isn't this just a power struggle between monsters? I'm not sure we should get involved...")
   0()
  Else()
   ShowMessageFace("ruka_fc1",0,0,2,23)
   ShowMessage("\\n<Luka>Isn't this just a power struggle between monsters? I'm not sure we should get involved...")
   0()
  EndIf()
  ShowMessageFace("emily_fc1",4,0,2,24)
  ShowMessage("\\n<Emily>Rumor has it that Candy is receiving support from Black Alice. Leaving her alone might come back and bite you guys in the ass.")
  ShowMessageFace("cassandra_fc2",0,0,2,25)
  ShowMessage("\\n<Cassandra>Perhaps not as much as us, but Candy is still a dangerous monster. She'll definitely cause harm to humans if nothing is done about her.")
  If(0,4,0)
   ShowMessageFace("alice_fc5",0,0,2,26)
   ShowMessage("\\n<Alice>You're right. Leaving Candy alone is too much of a risk. She's the kind of monster that delights in eating people.")
   ShowMessageFace("alice_fc5",0,0,2,27)
   ShowMessage("\\n<Alice>You said she has a base in the nearby mountains? Can you be more specific?")
   0()
  EndIf()
  If(0,5,0)
   ShowMessageFace("iriasu_fc4",2,0,2,28)
   ShowMessage("\\n<Ilias>You're right, we must put an end to Candy. She's the kind of monster that delights in eating humans.")
   ShowMessageFace("iriasu_fc4",2,0,2,29)
   ShowMessage("\\n<Ilias>You said she has a base in the nearby mountains? Can you be more specific?")
   0()
  EndIf()
  ShowMessageFace("emily_fc1",4,0,2,30)
  ShowMessage("\\n<Emily>Candy's group is occupying a place called Scenic Mountain directly east of here.")
  ShowMessageFace("cassandra_fc2",0,0,2,31)
  ShowMessage("\\n<Cassandra>I'm swallowing my pride to ask you for help, but please defeat Candy and return our powers to us.")
  If(12,"exist_party_persona_id?(241)")
   ShowMessageFace("a_emp_fc1",0,0,2,32)
   ShowMessage("\\n<Priestess>I feel this is all a little too convenient for them...")
   0()
  EndIf()
  If(0,4,0)
   ShowMessageFace("alice_fc5",2,0,2,33)
   ShowMessage("\\n<Alice>You two aren't exactly praise-worthy monsters yourselves. Have you not been eating the travelers who came to your village?")
   0()
  EndIf()
  If(0,5,0)
   ShowMessageFace("iriasu_fc4",7,0,2,34)
   ShowMessage("\\n<Ilias>You two are wicked monsters yourselves. You prey on travelers who come to your village...")
   0()
  EndIf()
  ShowMessageFace("cassandra_fc2",0,0,2,35)
  ShowMessage("\\n<Cassandra>I swear never to do such things again.\nAssuming you get our power back from Candy, of course.")
  ShowMessageFace("emily_fc1",4,0,2,36)
  ShowMessage("\\n<Emily>I swear on my pride as a noble.\nPlease help us, please!")
  If(12,"exist_party_persona_id?(233)")
   ShowMessageFace("mefist_fc1",0,0,2,37)
   ShowMessage("\\n<Mephisto>I don't think they will renege...\nSo what shall we do?")
   0()
  EndIf()
  If(12,"exist_party_persona_id?(391)")
   ShowMessageFace("mefist_fc2",0,0,2,38)
   ShowMessage("\\n<Mephisto>I don't think they will renege...\nSo what shall we do?")
   0()
  EndIf()
  ShowMessageFace("ruka_fc1",0,0,2,39)
  ShowMessage("\\n<Luka>I don't think we have much choice...")
  ShowMessageFace("",0,0,2,40)
  ShowMessage("Monster power struggle aside, Candy seems to be a dangerous monster that we can't just ignore.")
  ShowMessageFace("cassandra_fc2",0,0,2,41)
  ShowMessage("\\n<Cassandra>...Ran, come here.")
  PictureClear(5)
  PictureClear(6)
  ChangeSwitch(33,33,0)
  205(117,bytes(0x04,0x08,0x6f,0x3a,0x13,0x52,0x50,0x47,0x3a,0x3a,0x4d,0x6f,0x76,0x65,0x52,0x6f,0x75,0x74,0x65,0x09,0x3a,0x0c,0x40,0x72,0x65,0x70,0x65,0x61,0x74,0x46,0x3a,0x0f,0x40,0x73,0x6b,0x69,0x70,0x70,0x61,0x62,0x6c,0x65,0x46,0x3a,0x0a,0x40,0x77,0x61,0x69,0x74,0x54,0x3a,0x0a,0x40,0x6c,0x69,0x73,0x74,0x5b,0x0d,0x6f,0x3a,0x15,0x52,0x50,0x47,0x3a,0x3a,0x4d,0x6f,0x76,0x65,0x43,0x6f,0x6d,0x6d,0x61,0x6e,0x64,0x07,0x3a,0x0a,0x40,0x63,0x6f,0x64,0x65,0x69,0x09,0x3a,0x10,0x40,0x70,0x61,0x72,0x61,0x6d,0x65,0x74,0x65,0x72,0x73,0x5b,0x00,0x6f,0x3b,0x0a,0x07,0x3b,0x0b,0x69,0x09,0x3b,0x0c,0x5b,0x00,0x6f,0x3b,0x0a,0x07,0x3b,0x0b,0x69,0x09,0x3b,0x0c,0x5b,0x00,0x6f,0x3b,0x0a,0x07,0x3b,0x0b,0x69,0x09,0x3b,0x0c,0x5b,0x00,0x6f,0x3b,0x0a,0x07,0x3b,0x0b,0x69,0x09,0x3b,0x0c,0x5b,0x00,0x6f,0x3b,0x0a,0x07,0x3b,0x0b,0x69,0x09,0x3b,0x0c,0x5b,0x00,0x6f,0x3b,0x0a,0x07,0x3b,0x0b,0x69,0x16,0x3b,0x0c,0x5b,0x00,0x6f,0x3b,0x0a,0x07,0x3b,0x0b,0x69,0x00,0x3b,0x0c,0x5b,0x00))
  ShowMessageFace("maidscyulla_fc1",1,0,2,42)
  ShowMessage("\\n<Maid>What do you require of me?")
  PictureDisplay(5,"80_cassandra_st31",0,0,-150,-20,100,100,0,0)
  PictureDisplay(6,"80_maidscyulla_st01",0,0,180,0,100,100,0,0)
  PictureMove(5,null,0,0,-150,-20,100,100,255,0,30,false)
  PictureMove(6,null,0,0,180,0,100,100,255,0,30,true)
  ShowMessageFace("cassandra_fc2",0,0,2,43)
  ShowMessage("\\n<Cassandra>Accompany the hero and his party and lend him a hand in defeating Candy.")
  ShowMessageFace("maidscyulla_fc1",1,0,2,44)
  ShowMessage("\\n<Maid>If those are your orders, Lord Cassandra...\nThen I shall be joining you.")
  ChangeSwitch(33,33,1)
  PictureClear(5)
  PictureClear(6)
  355("add_actor_ex(289)")
  249(bytes(0x04,0x08,0x6f,0x3a,0x0c,0x52,0x50,0x47,0x3a,0x3a,0x4d,0x45,0x08,0x3a,0x0a,0x40,0x6e,0x61,0x6d,0x65,0x49,0x22,0x0c,0x66,0x61,0x6e,0x66,0x61,0x6c,0x65,0x06,0x3a,0x06,0x45,0x54,0x3a,0x0b,0x40,0x70,0x69,0x74,0x63,0x68,0x69,0x69,0x3a,0x0c,0x40,0x76,0x6f,0x6c,0x75,0x6d,0x65,0x69,0x69))
  ShowMessageFace("",0,0,2,45)
  ShowMessage("Ran has joined the party!")
  Wait(60)
  ShowMessageFace("maidscyulla_fc1",1,0,2,46)
  ShowMessage("\\n<Ran>Shall we depart?\nAs you already heard, Candy is in the mountains to the east.")
  ShowMessageFace("emily_fc1",4,0,2,47)
  ShowMessage("\\n<Emily>Kick her ass, Ran!")
  ShowMessageFace("cassandra_fc2",0,0,2,48)
  ShowMessage("\\n<Cassandra>I await the good news...")
  If(0,4,0)
   ShowMessageFace("alice_fc5",3,0,2,49)
   ShowMessage("\\n<Alice>Oh bother...")
   0()
  EndIf()
  If(0,5,0)
   ShowMessageFace("iriasu_fc4",2,0,2,50)
   ShowMessage("\\n<Ilias>It's a strange twist of fate that finds me helping these monsters...")
   0()
  EndIf()
  If(4,14,0)
   ShowMessageFace("undine_fc1",0,0,2,51)
   ShowMessage("\\n<Undine>But it's something we must do...")
   0()
  EndIf()
  ShowMessageFace("",0,0,2,52)
  ShowMessage("Thus, we head to the mountains to the east to take down some monsters--")
  ChangeVariable(1066,1066,0,0,3)
  0()
 PAGE   2
  // condition: variable 1066 >= 3
  0()
 PAGE   3
  // condition: variable 1066 >= 4
  ShowMessageFace("maidscyulla_fc1",1,0,2,1)
  ShowMessage("\\n<Ran>Lord Cassandra, we have returned.\nYour orders were carried out successfully.")
  If(4,53,0)
   ShowMessageFace("slime_fc1",0,0,2,2)
   ShowMessage("\\n<Lime>We're baaaaack!")
   0()
  EndIf()
  PictureDisplay(5,"80_cassandra_st31",0,0,-150,-20,100,100,0,0)
  PictureDisplay(6,"80_emily_st31",0,0,150,20,100,100,0,0)
  PictureMove(5,null,0,0,-150,-20,100,100,255,0,30,false)
  PictureMove(6,null,0,0,150,20,100,100,255,0,30,true)
  ShowMessageFace("cassandra_fc2",0,0,2,3)
  ShowMessage("\\n<Cassandra>So you actually recovered our power...")
  ShowMessageFace("emily_fc1",4,0,2,4)
  ShowMessage("\\n<Emily>Woo hoo! You guys rock!")
  PictureClear(5)
  PictureClear(6)
  205(-1,bytes(0x04,0x08,0x6f,0x3a,0x13,0x52,0x50,0x47,0x3a,0x3a,0x4d,0x6f,0x76,0x65,0x52,0x6f,0x75,0x74,0x65,0x09,0x3a,0x0c,0x40,0x72,0x65,0x70,0x65,0x61,0x74,0x46,0x3a,0x0f,0x40,0x73,0x6b,0x69,0x70,0x70,0x61,0x62,0x6c,0x65,0x46,0x3a,0x0a,0x40,0x77,0x61,0x69,0x74,0x54,0x3a,0x0a,0x40,0x6c,0x69,0x73,0x74,0x5b,0x0c,0x6f,0x3a,0x15,0x52,0x50,0x47,0x3a,0x3a,0x4d,0x6f,0x76,0x65,0x43,0x6f,0x6d,0x6d,0x61,0x6e,0x64,0x07,0x3a,0x0a,0x40,0x63,0x6f,0x64,0x65,0x69,0x07,0x3a,0x10,0x40,0x70,0x61,0x72,0x61,0x6d,0x65,0x74,0x65,0x72,0x73,0x5b,0x00,0x6f,0x3b,0x0a,0x07,0x3b,0x0b,0x69,0x07,0x3b,0x0c,0x5b,0x00,0x6f,0x3b,0x0a,0x07,0x3b,0x0b,0x69,0x09,0x3b,0x0c,0x5b,0x00,0x6f,0x3b,0x0a,0x07,0x3b,0x0b,0x69,0x09,0x3b,0x0c,0x5b,0x00,0x6f,0x3b,0x0a,0x07,0x3b,0x0b,0x69,0x09,0x3b,0x0c,0x5b,0x00,0x6f,0x3b,0x0a,0x07,0x3b,0x0b,0x69,0x16,0x3b,0x0c,0x5b,0x00,0x6f,0x3b,0x0a,0x07,0x3b,0x0b,0x69,0x00,0x3b,0x0c,0x5b,0x00))
  217()
  241(bytes(0x04,0x08,0x6f,0x3a,0x0d,0x52,0x50,0x47,0x3a,0x3a,0x42,0x47,0x4d,0x08,0x3a,0x0a,0x40,0x6e,0x61,0x6d,0x65,0x49,0x22,0x14,0x73,0x63,0x65,0x6e,0x65,0x5f,0x65,0x70,0x69,0x6c,0x6f,0x67,0x75,0x65,0x32,0x06,0x3a,0x06,0x45,0x54,0x3a,0x0c,0x40,0x76,0x6f,0x6c,0x75,0x6d,0x65,0x69,0x69,0x3a,0x0b,0x40,0x70,0x69,0x74,0x63,0x68,0x69,0x69))
  ChangeInventory_Item(536,1,0,1)
  ShowMessageFace("",0,0,2,5)
  ShowMessage("Luka hands the \\ii[536] over to Cassandra and Emily.")
  PictureDisplay(5,"80_emily_st31",0,0,0,20,100,100,255,0)
  ShowMessageFace("emily_fc1",4,0,2,6)
  ShowMessage("\\n<Emily>This piece has my power sealed in it!\n*munch* *munch*")
  250(bytes(0x04,0x08,0x6f,0x3a,0x0c,0x52,0x50,0x47,0x3a,0x3a,0x53,0x45,0x08,0x3a,0x0a,0x40,0x6e,0x61,0x6d,0x65,0x49,0x22,0x0d,0x6d,0x6f,0x6e,0x5f,0x77,0x61,0x72,0x6d,0x06,0x3a,0x06,0x45,0x54,0x3a,0x0b,0x40,0x70,0x69,0x74,0x63,0x68,0x69,0x69,0x3a,0x0c,0x40,0x76,0x6f,0x6c,0x75,0x6d,0x65,0x69,0x69))
  PictureDisplay(6,"sys_white",0,0,0,0,100,100,0,0)
  PictureMove(6,null,0,0,0,0,100,100,255,0,30,true)
  PictureDisplay(5,"80_emily_st22",0,0,0,0,100,100,255,0)
  ChangeSwitch(31,31,0)
  PictureMove(6,null,0,0,0,0,100,100,0,0,30,true)
  PictureClear(6)
  ShowMessageFace("emily_fc1",2,0,2,7)
  ShowMessage("\\n<Emily>Yesssssss! I'm back to normal!")
  If(4,62,0)
   ShowMessageFace("gob_fc1",0,0,2,8)
   ShowMessage("\\n<Gob>Good for you!")
   0()
  EndIf()
  PictureDisplay(5,"80_cassandra_st31",0,0,-20,0,100,100,0,0)
  PictureMove(5,null,0,0,-20,0,100,100,255,0,30,true)
  ShowMessageFace("cassandra_fc2",0,0,2,9)
  ShowMessage("\\n<Cassandra>My portion... seems kind of small, doesn't it?\nI'm not sure this is going to be enough to fully restore my power...")
  ShowMessageFace("cassandra_fc2",0,0,2,10)
  ShowMessage("\\n<Cassandra>*munch* *munch*")
  250(bytes(0x04,0x08,0x6f,0x3a,0x0c,0x52,0x50,0x47,0x3a,0x3a,0x53,0x45,0x08,0x3a,0x0a,0x40,0x6e,0x61,0x6d,0x65,0x49,0x22,0x0d,0x6d,0x6f,0x6e,0x5f,0x77,0x61,0x72,0x6d,0x06,0x3a,0x06,0x45,0x54,0x3a,0x0b,0x40,0x70,0x69,0x74,0x63,0x68,0x69,0x69,0x3a,0x0c,0x40,0x76,0x6f,0x6c,0x75,0x6d,0x65,0x69,0x69))
  PictureDisplay(6,"sys_white",0,0,0,0,100,100,0,0)
  PictureMove(6,null,0,0,0,0,100,100,255,0,30,true)
  PictureDisplay(5,"80_cassandra_st21",0,0,0,0,100,100,255,0)
  ChangeSwitch(32,32,0)
  PictureMove(6,null,0,0,0,0,100,100,0,0,30,true)
  PictureClear(6)
  ShowMessageFace("cassandra_fc1",5,0,2,11)
  ShowMessage("\\n<Cassandra>I knew it... That didn't restore my power entirely. I'm only about as strong as Emily now.")
  PictureDisplay(6,"80_cassandra_st21",0,0,-150,0,100,100,255,0)
  PictureDisplay(5,"80_emily_st01",0,0,150,0,100,100,255,0)
  ShowMessageFace("emily_fc1",2,0,2,12)
  ShowMessage("\\n<Emily>You're so cute, mother. ♪")
  ShowMessage("You look just like me. ♪")
  ShowMessageFace("cassandra_fc1",5,0,2,13)
  ShowMessage("\\n<Cassandra>Ufufu, I feel oddly exuberant.\nNow how shall I enjoy this fresh new body of mine?")
  ShowMessageFace("emily_fc1",2,0,2,14)
  ShowMessage("\\n<Emily>Mother, the magical girl selection ceremony is being held in Goddard soon. Why don't we go to that?")
  ShowMessageFace("cassandra_fc1",5,0,2,15)
  ShowMessage("\\n<Cassandra>An excellent suggestion.\nLet's go, Emily.")
  ShowMessageFace("emily_fc1",2,0,2,16)
  ShowMessage("\\n<Emily>Yes, mother. ♪")
  PictureClear(5)
  PictureClear(6)
  205(43,bytes(0x04,0x08,0x6f,0x3a,0x13,0x52,0x50,0x47,0x3a,0x3a,0x4d,0x6f,0x76,0x65,0x52,0x6f,0x75,0x74,0x65,0x09,0x3a,0x0c,0x40,0x72,0x65,0x70,0x65,0x61,0x74,0x46,0x3a,0x0f,0x40,0x73,0x6b,0x69,0x70,0x70,0x61,0x62,0x6c,0x65,0x46,0x3a,0x0a,0x40,0x77,0x61,0x69,0x74,0x46,0x3a,0x0a,0x40,0x6c,0x69,0x73,0x74,0x5b,0x22,0x6f,0x3a,0x15,0x52,0x50,0x47,0x3a,0x3a,0x4d,0x6f,0x76,0x65,0x43,0x6f,0x6d,0x6d,0x61,0x6e,0x64,0x07,0x3a,0x0a,0x40,0x63,0x6f,0x64,0x65,0x69,0x22,0x3a,0x10,0x40,0x70,0x61,0x72,0x61,0x6d,0x65,0x74,0x65,0x72,0x73,0x5b,0x06,0x69,0x0b,0x6f,0x3b,0x0a,0x07,0x3b,0x0b,0x69,0x23,0x3b,0x0c,0x5b,0x06,0x69,0x0a,0x6f,0x3b,0x0a,0x07,0x3b,0x0b,0x69,0x09,0x3b,0x0c,0x5b,0x00,0x6f,0x3b,0x0a,0x07,0x3b,0x0b,0x69,0x08,0x3b,0x0c,0x5b,0x00,0x6f,0x3b,0x0a,0x07,0x3b,0x0b,0x69,0x08,0x3b,0x0c,0x5b,0x00,0x6f,0x3b,0x0a,0x07,0x3b,0x0b,0x69,0x08,0x3b,0x0c,0x5b,0x00,0x6f,0x3b,0x0a,0x07,0x3b,0x0b,0x69,0x08,0x3b,0x0c,0x5b,0x00,0x6f,0x3b,0x0a,0x07,0x3b,0x0b,0x69,0x08,0x3b,0x0c,0x5b,0x00,0x6f,0x3b,0x0a,0x07,0x3b,0x0b,0x69,0x08,0x3b,0x0c,0x5b,0x00,0x6f,0x3b,0x0a,0x07,0x3b,0x0b,0x69,0x08,0x3b,0x0c,0x5b,0x00,0x6f,0x3b,0x0a,0x07,0x3b,0x0b,0x69,0x08,0x3b,0x0c,0x5b,0x00,0x6f,0x3b,0x0a,0x07,0x3b,0x0b,0x69,0x08,0x3b,0x0c,0x5b,0x00,0x6f,0x3b,0x0a,0x07,0x3b,0x0b,0x69,0x06,0x3b,0x0c,0x5b,0x00,0x6f,0x3b,0x0a,0x07,0x3b,0x0b,0x69,0x06,0x3b,0x0c,0x5b,0x00,0x6f,0x3b,0x0a,0x07,0x3b,0x0b,0x69,0x08,0x3b,0x0c,0x5b,0x00,0x6f,0x3b,0x0a,0x07,0x3b,0x0b,0x69,0x08,0x3b,0x0c,0x5b,0x00,0x6f,0x3b,0x0a,0x07,0x3b,0x0b,0x69,0x08,0x3b,0x0c,0x5b,0x00,0x6f,0x3b,0x0a,0x07,0x3b,0x0b,0x69,0x08,0x3b,0x0c,0x5b,0x00,0x6f,0x3b,0x0a,0x07,0x3b,0x0b,0x69,0x06,0x3b,0x0c,0x5b,0x00,0x6f,0x3b,0x0a,0x07,0x3b,0x0b,0x69,0x06,0x3b,0x0c,0x5b,0x00,0x6f,0x3b,0x0a,0x07,0x3b,0x0b,0x69,0x06,0x3b,0x0c,0x5b,0x00,0x6f,0x3b,0x0a,0x07,0x3b,0x0b,0x69,0x06,0x3b,0x0c,0x5b,0x00,0x6f,0x3b,0x0a,0x07,0x3b,0x0b,0x69,0x06,0x3b,0x0c,0x5b,0x00,0x6f,0x3b,0x0a,0x07,0x3b,0x0b,0x69,0x06,0x3b,0x0c,0x5b,0x00,0x6f,0x3b,0x0a,0x07,0x3b,0x0b,0x69,0x06,0x3b,0x0c,0x5b,0x00,0x6f,0x3b,0x0a,0x07,0x3b,0x0b,0x69,0x06,0x3b,0x0c,0x5b,0x00,0x6f,0x3b,0x0a,0x07,0x3b,0x0b,0x69,0x06,0x3b,0x0c,0x5b,0x00,0x6f,0x3b,0x0a,0x07,0x3b,0x0b,0x69,0x2c,0x3b,0x0c,0x5b,0x00,0x6f,0x3b,0x0a,0x07,0x3b,0x0b,0x69,0x00,0x3b,0x0c,0x5b,0x00))
  205(44,bytes(0x04,0x08,0x6f,0x3a,0x13,0x52,0x50,0x47,0x3a,0x3a,0x4d,0x6f,0x76,0x65,0x52,0x6f,0x75,0x74,0x65,0x09,0x3a,0x0c,0x40,0x72,0x65,0x70,0x65,0x61,0x74,0x46,0x3a,0x0f,0x40,0x73,0x6b,0x69,0x70,0x70,0x61,0x62,0x6c,0x65,0x46,0x3a,0x0a,0x40,0x77,0x61,0x69,0x74,0x54,0x3a,0x0a,0x40,0x6c,0x69,0x73,0x74,0x5b,0x1e,0x6f,0x3a,0x15,0x52,0x50,0x47,0x3a,0x3a,0x4d,0x6f,0x76,0x65,0x43,0x6f,0x6d,0x6d,0x61,0x6e,0x64,0x07,0x3a,0x0a,0x40,0x63,0x6f,0x64,0x65,0x69,0x22,0x3a,0x10,0x40,0x70,0x61,0x72,0x61,0x6d,0x65,0x74,0x65,0x72,0x73,0x5b,0x06,0x69,0x0b,0x6f,0x3b,0x0a,0x07,0x3b,0x0b,0x69,0x23,0x3b,0x0c,0x5b,0x06,0x69,0x0a,0x6f,0x3b,0x0a,0x07,0x3b,0x0b,0x69,0x06,0x3b,0x0c,0x5b,0x00,0x6f,0x3b,0x0a,0x07,0x3b,0x0b,0x69,0x06,0x3b,0x0c,0x5b,0x00,0x6f,0x3b,0x0a,0x07,0x3b,0x0b,0x69,0x08,0x3b,0x0c,0x5b,0x00,0x6f,0x3b,0x0a,0x07,0x3b,0x0b,0x69,0x08,0x3b,0x0c,0x5b,0x00,0x6f,0x3b,0x0a,0x07,0x3b,0x0b,0x69,0x08,0x3b,0x0c,0x5b,0x00,0x6f,0x3b,0x0a,0x07,0x3b,0x0b,0x69,0x08,0x3b,0x0c,0x5b,0x00,0x6f,0x3b,0x0a,0x07,0x3b,0x0b,0x69,0x08,0x3b,0x0c,0x5b,0x00,0x6f,0x3b,0x0a,0x07,0x3b,0x0b,0x69,0x08,0x3b,0x0c,0x5b,0x00,0x6f,0x3b,0x0a,0x07,0x3b,0x0b,0x69,0x08,0x3b,0x0c,0x5b,0x00,0x6f,0x3b,0x0a,0x07,0x3b,0x0b,0x69,0x08,0x3b,0x0c,0x5b,0x00,0x6f,0x3b,0x0a,0x07,0x3b,0x0b,0x69,0x08,0x3b,0x0c,0x5b,0x00,0x6f,0x3b,0x0a,0x07,0x3b,0x0b,0x69,0x08,0x3b,0x0c,0x5b,0x00,0x6f,0x3b,0x0a,0x07,0x3b,0x0b,0x69,0x08,0x3b,0x0c,0x5b,0x00,0x6f,0x3b,0x0a,0x07,0x3b,0x0b,0x69,0x08,0x3b,0x0c,0x5b,0x00,0x6f,0x3b,0x0a,0x07,0x3b,0x0b,0x69,0x08,0x3b,0x0c,0x5b,0x00,0x6f,0x3b,0x0a,0x07,0x3b,0x0b,0x69,0x06,0x3b,0x0c,0x5b,0x00,0x6f,0x3b,0x0a,0x07,0x3b,0x0b,0x69,0x06,0x3b,0x0c,0x5b,0x00,0x6f,0x3b,0x0a,0x07,0x3b,0x0b,0x69,0x06,0x3b,0x0c,0x5b,0x00,0x6f,0x3b,0x0a,0x07,0x3b,0x0b,0x69,0x06,0x3b,0x0c,0x5b,0x00,0x6f,0x3b,0x0a,0x07,0x3b,0x0b,0x69,0x06,0x3b,0x0c,0x5b,0x00,0x6f,0x3b,0x0a,0x07,0x3b,0x0b,0x69,0x06,0x3b,0x0c,0x5b,0x00,0x6f,0x3b,0x0a,0x07,0x3b,0x0b,0x69,0x2c,0x3b,0x0c,0x5b,0x00,0x6f,0x3b,0x0a,0x07,0x3b,0x0b,0x69,0x00,0x3b,0x0c,0x5b,0x00))
  If(0,4,0)
   ShowMessageFace("alice_fc5",6,0,2,17)
   ShowMessage("\\n<Alice>.........")
   0()
  EndIf()
  If(0,5,0)
   ShowMessageFace("iriasu_fc4",5,0,2,18)
   ShowMessage("\\n<Ilias>.........")
   0()
  EndIf()
  If(0,6,0)
   ShowMessageFace("sonia_fc3",2,0,2,19)
   ShowMessage("\\n<Sonya>.........")
   0()
  EndIf()
  ShowMessageFace("maidscyulla_fc1",3,0,2,20)
  ShowMessage("\\n<Ran>.........")
  355("gain_medal(48)")
  ShowMessageFace("ruka_fc1",0,0,2,21)
  ShowMessage("\\n<Luka>I guess we can consider this matter resolved?")
  If(1,1065,0,3,1)
   If(0,4,0)
    ShowMessageFace("alice_fc5",1,0,2,22)
    ShowMessage("\\n<Alice>We've completed both requests from the King of Grangold. If we go report the news to him, we should get the reward he mentioned.")
    If(1,1001,0,27,0)
     ShowMessageFace("alice_fc5",1,0,2,23)
     ShowMessage("\\n<Alice>Now then, we need to form a contract with Salamander. Shall we head to Gold Volcano? It's west of the checkpoint.")
     0()
    EndIf()
    0()
   EndIf()
   If(0,5,0)
    ShowMessageFace("iriasu_fc4",0,0,2,24)
    ShowMessage("\\n<Ilias>We've completed both requests from the King of Grangold. If we return with the news, we should receive the reward he promised.")
    If(1,1001,0,27,0)
     ShowMessageFace("iriasu_fc4",2,0,2,25)
     ShowMessage("\\n<Ilias>After that, as uncomfortable as I am with the idea, shall we form a contract with Salamander? She's in Gold Volcano to the west of the checkpoint.")
     0()
    EndIf()
    0()
   EndIf()
   0()
  Else()
   If(0,4,0)
    ShowMessageFace("alice_fc5",0,0,2,26)
    ShowMessage("\\n<Alice>We still have another request from the King of Grangold. Shall we head to Succubus Village?")
    0()
   EndIf()
   If(0,5,0)
    ShowMessageFace("iriasu_fc4",0,0,2,27)
    ShowMessage("\\n<Ilias>We still have one more request from the King of Grangold. Let's make our way to Succubus Village.")
    0()
   EndIf()
   0()
  EndIf()
  ShowMessageFace("maidscyulla_fc1",1,0,2,28)
  ShowMessage("\\n<Ran>...Pardon me, but could I make another request of you? I'd like to follow Cassandra and Emily.")
  ShowMessageFace("maidscyulla_fc1",1,0,2,29)
  ShowMessage("\\n<Ran>They said they are headed to Goddard to participate in some kind of ceremony. Since I'm a member of your party now, let's go to Goddard too.")
  If(0,6,0)
   ShowMessageFace("sonia_fc1",0,0,2,30)
   ShowMessage("\\n<Sonya>They mentioned a magical girl selection ceremony.\nDoes that interest you at all?")
   ShowMessageFace("ruka_fc1",0,0,2,31)
   ShowMessage("\\n<Luka>Not one bit.")
   If(4,88,0)
    ShowMessageFace("jack_fc1",1,0,2,32)
    ShowMessage("\\n<Pumpkin>I'm interested! ♪")
    0()
   EndIf()
   0()
  Else()
   ShowMessageFace("ruka_fc1",0,0,2,33)
   ShowMessage("\\n<Luka>They said there was a magical girl selection ceremony there.")
   0()
  EndIf()
  If(0,4,0)
   ShowMessageFace("alice_fc5",2,0,2,34)
   ShowMessage("\\n<Alice>I'm concerned about the ceremony, actually.\nIt uses the black arts of witches, and there's nothing cute about that.")
   ShowMessageFace("alice_fc5",0,0,2,35)
   ShowMessage("\\n<Alice>The mother of the previous Monster Lord strictly prohibited the ceremony, and anyone performing it could be put to death.")
   0()
  EndIf()
  If(0,5,0)
   ShowMessageFace("iriasu_fc4",2,0,2,36)
   ShowMessage("\\n<Ilias>I'm concerned about the ceremony, actually.\nIt uses the black arts of witches, and there's nothing cute about that.")
   ShowMessageFace("iriasu_fc4",2,0,2,37)
   ShowMessage("\\n<Ilias>One of the previous Monster Lords strictly prohibited the ceremony, and anyone performing it could be put to death.")
   0()
  EndIf()
  If(0,6,0)
   ShowMessageFace("sonia_fc2",2,0,2,38)
   ShowMessage("\\n<Sonya>You mean it's a really dangerous ceremony?\nWe've got to stop them then!")
   0()
  Else()
   ShowMessageFace("ruka_fc1",0,0,2,39)
   ShowMessage("\\n<Luka>You mean it's a really dangerous ceremony?\nWe've got to stop them then!")
   0()
  EndIf()
  If(4,167,0)
   ShowMessageFace("lusia_fc1",2,0,2,40)
   ShowMessage("\\n<Lucia>I can't just ignore dangerous sorcery being performed...")
   0()
  EndIf()
  If(4,203,0)
   ShowMessageFace("tatunoko_k_fc1",0,0,2,41)
   ShowMessage("\\n<Tatsuko>The Navy can't ignore that either!")
   0()
  EndIf()
  ShowMessageFace("ruka_fc1",0,0,2,42)
  ShowMessage("\\n<Luka>Okay, let's go to Goddard!")
  ShowMessageFace("",0,0,2,43)
  ShowMessage("A mysterious ceremony is taking place in Goddard.\nIt looks like we can't ignore it--")
  If(1,1065,0,3,1)
   ShowMessageFace("",0,0,2,44)
   ShowMessage("But before that, let's go report our successes to the King of Grangold. We've finished both of his requests, after all.")
   0()
  EndIf()
  ChangeVariable(1066,1066,0,0,5)
  ChangeVariable(1078,1078,0,0,1)
  ChangeSwitch(31,31,1)
  ChangeSwitch(32,32,1)
  TeleportPlayer(0,23,22,11,2,0)
  0()
 PAGE   4
  // condition: variable 1066 >= 5
  0()



EVENT   7
 PAGE   1
  0()



EVENT   8
 PAGE   1
  281(1)
  250(bytes(0x04,0x08,0x6f,0x3a,0x0c,0x52,0x50,0x47,0x3a,0x3a,0x53,0x45,0x08,0x3a,0x0a,0x40,0x6e,0x61,0x6d,0x65,0x49,0x22,0x09,0x4d,0x6f,0x76,0x65,0x06,0x3a,0x06,0x45,0x54,0x3a,0x0b,0x40,0x70,0x69,0x74,0x63,0x68,0x69,0x69,0x3a,0x0c,0x40,0x76,0x6f,0x6c,0x75,0x6d,0x65,0x69,0x55))
  TeleportPlayer(0,23,53,8,0,0)
  216(0)
  0()



EVENT   9
 PAGE   1
  0()



EVENT   10
 PAGE   1
  281(1)
  250(bytes(0x04,0x08,0x6f,0x3a,0x0c,0x52,0x50,0x47,0x3a,0x3a,0x53,0x45,0x08,0x3a,0x0a,0x40,0x6e,0x61,0x6d,0x65,0x49,0x22,0x09,0x4d,0x6f,0x76,0x65,0x06,0x3a,0x06,0x45,0x54,0x3a,0x0b,0x40,0x70,0x69,0x74,0x63,0x68,0x69,0x69,0x3a,0x0c,0x40,0x76,0x6f,0x6c,0x75,0x6d,0x65,0x69,0x55))
  TeleportPlayer(0,23,14,20,0,0)
  0()



EVENT   11
 PAGE   1
  281(1)
  250(bytes(0x04,0x08,0x6f,0x3a,0x0c,0x52,0x50,0x47,0x3a,0x3a,0x53,0x45,0x08,0x3a,0x0a,0x40,0x6e,0x61,0x6d,0x65,0x49,0x22,0x09,0x4d,0x6f,0x76,0x65,0x06,0x3a,0x06,0x45,0x54,0x3a,0x0b,0x40,0x70,0x69,0x74,0x63,0x68,0x69,0x69,0x3a,0x0c,0x40,0x76,0x6f,0x6c,0x75,0x6d,0x65,0x69,0x55))
  TeleportPlayer(0,23,32,25,0,0)
  0()



EVENT   12
 PAGE   1
  0()



EVENT   13
 PAGE   1
  0()



EVENT   14
 PAGE   1
  0()



EVENT   15
 PAGE   1
  0()



EVENT   16
 PAGE   1
  0()



EVENT   17
 PAGE   1
  281(1)
  250(bytes(0x04,0x08,0x6f,0x3a,0x0c,0x52,0x50,0x47,0x3a,0x3a,0x53,0x45,0x08,0x3a,0x0a,0x40,0x6e,0x61,0x6d,0x65,0x49,0x22,0x09,0x4d,0x6f,0x76,0x65,0x06,0x3a,0x06,0x45,0x54,0x3a,0x0b,0x40,0x70,0x69,0x74,0x63,0x68,0x69,0x69,0x3a,0x0c,0x40,0x76,0x6f,0x6c,0x75,0x6d,0x65,0x69,0x55))
  TeleportPlayer(0,23,38,28,0,0)
  0()



EVENT   18
 PAGE   1
  0()



EVENT   19
 PAGE   1
  0()



EVENT   20
 PAGE   1
  0()



EVENT   21
 PAGE   1
  250(bytes(0x04,0x08,0x6f,0x3a,0x0c,0x52,0x50,0x47,0x3a,0x3a,0x53,0x45,0x08,0x3a,0x0a,0x40,0x6e,0x61,0x6d,0x65,0x49,0x22,0x09,0x4d,0x6f,0x76,0x65,0x06,0x3a,0x06,0x45,0x54,0x3a,0x0b,0x40,0x70,0x69,0x74,0x63,0x68,0x69,0x69,0x3a,0x0c,0x40,0x76,0x6f,0x6c,0x75,0x6d,0x65,0x69,0x55))
  TeleportPlayer(0,24,98,29,0,0)
  0()



EVENT   22
 PAGE   1
  250(bytes(0x04,0x08,0x6f,0x3a,0x0c,0x52,0x50,0x47,0x3a,0x3a,0x53,0x45,0x08,0x3a,0x0a,0x40,0x6e,0x61,0x6d,0x65,0x49,0x22,0x09,0x4d,0x6f,0x76,0x65,0x06,0x3a,0x06,0x45,0x54,0x3a,0x0b,0x40,0x70,0x69,0x74,0x63,0x68,0x69,0x69,0x3a,0x0c,0x40,0x76,0x6f,0x6c,0x75,0x6d,0x65,0x69,0x55))
  TeleportPlayer(0,24,99,29,0,0)
  0()



EVENT   23
 PAGE   1
  250(bytes(0x04,0x08,0x6f,0x3a,0x0c,0x52,0x50,0x47,0x3a,0x3a,0x53,0x45,0x08,0x3a,0x0a,0x40,0x6e,0x61,0x6d,0x65,0x49,0x22,0x09,0x4d,0x6f,0x76,0x65,0x06,0x3a,0x06,0x45,0x54,0x3a,0x0b,0x40,0x70,0x69,0x74,0x63,0x68,0x69,0x69,0x3a,0x0c,0x40,0x76,0x6f,0x6c,0x75,0x6d,0x65,0x69,0x55))
  TeleportPlayer(0,24,98,7,0,0)
  0()



EVENT   24
 PAGE   1
  250(bytes(0x04,0x08,0x6f,0x3a,0x0c,0x52,0x50,0x47,0x3a,0x3a,0x53,0x45,0x08,0x3a,0x0a,0x40,0x6e,0x61,0x6d,0x65,0x49,0x22,0x09,0x4d,0x6f,0x76,0x65,0x06,0x3a,0x06,0x45,0x54,0x3a,0x0b,0x40,0x70,0x69,0x74,0x63,0x68,0x69,0x69,0x3a,0x0c,0x40,0x76,0x6f,0x6c,0x75,0x6d,0x65,0x69,0x55))
  TeleportPlayer(0,24,99,7,0,0)
  0()



EVENT   25
 PAGE   1
  281(1)
  250(bytes(0x04,0x08,0x6f,0x3a,0x0c,0x52,0x50,0x47,0x3a,0x3a,0x53,0x45,0x08,0x3a,0x0a,0x40,0x6e,0x61,0x6d,0x65,0x49,0x22,0x09,0x4d,0x6f,0x76,0x65,0x06,0x3a,0x06,0x45,0x54,0x3a,0x0b,0x40,0x70,0x69,0x74,0x63,0x68,0x69,0x69,0x3a,0x0c,0x40,0x76,0x6f,0x6c,0x75,0x6d,0x65,0x69,0x55))
  TeleportPlayer(0,23,49,33,0,0)
  0()



EVENT   26
 PAGE   1
  0()



EVENT   27
 PAGE   1
  0()



EVENT   28
 PAGE   1
  0()



EVENT   29
 PAGE   1
  0()



EVENT   30
 PAGE   1
  281(1)
  250(bytes(0x04,0x08,0x6f,0x3a,0x0c,0x52,0x50,0x47,0x3a,0x3a,0x53,0x45,0x08,0x3a,0x0a,0x40,0x6e,0x61,0x6d,0x65,0x49,0x22,0x09,0x4d,0x6f,0x76,0x65,0x06,0x3a,0x06,0x45,0x54,0x3a,0x0b,0x40,0x70,0x69,0x74,0x63,0x68,0x69,0x69,0x3a,0x0c,0x40,0x76,0x6f,0x6c,0x75,0x6d,0x65,0x69,0x55))
  TeleportPlayer(0,23,26,42,0,0)
  0()



EVENT   31
 PAGE   1
  0()



EVENT   32
 PAGE   1
  0()



EVENT   33
 PAGE   1
  281(1)
  250(bytes(0x04,0x08,0x6f,0x3a,0x0c,0x52,0x50,0x47,0x3a,0x3a,0x53,0x45,0x08,0x3a,0x0a,0x40,0x6e,0x61,0x6d,0x65,0x49,0x22,0x09,0x4d,0x6f,0x76,0x65,0x06,0x3a,0x06,0x45,0x54,0x3a,0x0b,0x40,0x70,0x69,0x74,0x63,0x68,0x69,0x69,0x3a,0x0c,0x40,0x76,0x6f,0x6c,0x75,0x6d,0x65,0x69,0x55))
  TeleportPlayer(0,23,39,45,0,0)
  0()



EVENT   34
 PAGE   1
  ShowMessageFace("",0,0,2,1)
  ShowMessage("\\n<Soldier>The highest rank adventurer is known as a Ranger.\nThey learn some handy skills and abilities for long journeys.")
  ShowMessageFace("",0,0,2,2)
  ShowMessage("\\n<Soldier>For example, one convenient ability lets you recover lots of HP and MP after every battle. If you have that, even the largest dungeons become a breeze!")
  0()



EVENT   35
 PAGE   1
  ShowMessageFace("",0,0,2,1)
  ShowMessage("\\n<Mage>If a Taoist continues their training, they learn abilities to nullify the natural elements. If you're having problems with wind or water, give Taoist a try.")
  0()



EVENT   36
 PAGE   1
  ShowMessageFace("",0,0,2,1)
  ShowMessage("\\n<Monk>We heard that travelers were being attacked in this village. We came to put a stop to it, but it doesn't look like anything of the sort is going on now.")
  0()



EVENT   37
 PAGE   1
  0()



EVENT   38
 PAGE   1
  0()



EVENT   39
 PAGE   1
  281(1)
  250(bytes(0x04,0x08,0x6f,0x3a,0x0c,0x52,0x50,0x47,0x3a,0x3a,0x53,0x45,0x08,0x3a,0x0a,0x40,0x6e,0x61,0x6d,0x65,0x49,0x22,0x09,0x4d,0x6f,0x76,0x65,0x06,0x3a,0x06,0x45,0x54,0x3a,0x0b,0x40,0x70,0x69,0x74,0x63,0x68,0x69,0x69,0x3a,0x0c,0x40,0x76,0x6f,0x6c,0x75,0x6d,0x65,0x69,0x55))
  TeleportPlayer(0,23,47,56,0,0)
  0()



EVENT   40
 PAGE   1
  ShowMessageFace("",0,0,2,1)
  ShowMessage("\\n<Mage>I don't carry a large variety, but these accessories are matters of life and death.")
  Shop(2,1413,0,0,false)
  605(2,1416,0,0)
  605(2,1419,0,0)
  605(2,1539,0,0)
  605(2,1541,0,0)
  605(2,1543,0,0)
  0()



EVENT   41
 PAGE   1
  ShowMessageFace("",0,0,2,1)
  ShowMessage("\\n<Tool Seller>Lots of travelers here these days...\nBuy some items to keep you safe on your adventures.")
  Shop(0,2,0,0,false)
  605(0,7,0,0)
  605(0,11,0,0)
  605(0,13,0,0)
  605(0,14,0,0)
  605(0,15,0,0)
  605(0,16,0,0)
  605(0,17,0,0)
  605(0,18,0,0)
  605(0,19,0,0)
  605(0,20,0,0)
  605(0,21,0,0)
  605(0,23,0,0)
  605(0,35,0,0)
  605(0,109,0,0)
  0()



EVENT   42
 PAGE   1
  0()



EVENT   43
 PAGE   1
  PictureDisplay(5,"80_cassandra_st31",0,0,0,-20,100,100,0,0)
  PictureMove(5,null,0,0,0,-20,100,100,255,0,30,true)
  ShowMessageFace("cassandra_fc2",0,0,2,1)
  ShowMessage("\\n<Cassandra>I swear I'll stop my inhumane behavior. Just get my power back from Candy...")
  ShowMessageFace("cassandra_fc2",0,0,2,2)
  ShowMessage("\\n<Cassandra>She supposedly made her base on Scenic Mountain to the east of here.")
  PictureClear(5)
  0()
 PAGE   2
  // condition: switch 32 is ON
  0()
 PAGE   3
  // condition: variable 1066 >= 5
  0()



EVENT   44
 PAGE   1
  PictureDisplay(5,"80_emily_st31",0,0,0,20,100,100,0,0)
  PictureMove(5,null,0,0,0,20,100,100,255,0,30,true)
  ShowMessageFace("emily_fc1",4,0,2,1)
  ShowMessage("\\n<Emily>If you help, I won't ever kill another human again. So please get our power back from Candy!")
  PictureClear(5)
  355("actor_label_jump")
  EndEventProcessing()
  DefineLabel("155")
  ShowMessageFace("emily_fc1",4,0,2,2)
  ShowMessage("\\n<Emily>...Wow, is that Saki-chan!?\nNo way, I'm a huge fan! ♪")
  ShowMessageFace("saki_fc1",3,0,2,3)
  ShowMessage("\\n<Saki>Thanks for your support! ☆")
  EndEventProcessing()
  0()
 PAGE   2
  // condition: switch 31 is ON
  0()
 PAGE   3
  // condition: variable 1066 >= 5
  0()



EVENT   45
 PAGE   1
  0()



EVENT   46
 PAGE   1
  0()



EVENT   47
 PAGE   1
  0()



EVENT   48
 PAGE   1
  0()



EVENT   49
 PAGE   1
  0()



EVENT   50
 PAGE   1
  0()



EVENT   51
 PAGE   1
  0()



EVENT   52
 PAGE   1
  0()



EVENT   53
 PAGE   1
  0()



EVENT   54
 PAGE   1
  0()



EVENT   55
 PAGE   1
  0()



EVENT   56
 PAGE   1
  250(bytes(0x04,0x08,0x6f,0x3a,0x0c,0x52,0x50,0x47,0x3a,0x3a,0x53,0x45,0x08,0x3a,0x0a,0x40,0x6e,0x61,0x6d,0x65,0x49,0x22,0x09,0x4d,0x6f,0x76,0x65,0x06,0x3a,0x06,0x45,0x54,0x3a,0x0b,0x40,0x70,0x69,0x74,0x63,0x68,0x69,0x69,0x3a,0x0c,0x40,0x76,0x6f,0x6c,0x75,0x6d,0x65,0x69,0x55))
  TeleportPlayer(0,24,102,65,0,0)
  0()



EVENT   57
 PAGE   1
  250(bytes(0x04,0x08,0x6f,0x3a,0x0c,0x52,0x50,0x47,0x3a,0x3a,0x53,0x45,0x08,0x3a,0x0a,0x40,0x6e,0x61,0x6d,0x65,0x49,0x22,0x09,0x4d,0x6f,0x76,0x65,0x06,0x3a,0x06,0x45,0x54,0x3a,0x0b,0x40,0x70,0x69,0x74,0x63,0x68,0x69,0x69,0x3a,0x0c,0x40,0x76,0x6f,0x6c,0x75,0x6d,0x65,0x69,0x55))
  TeleportPlayer(0,24,102,65,0,0)
  0()



EVENT   58
 PAGE   1
  250(bytes(0x04,0x08,0x6f,0x3a,0x0c,0x52,0x50,0x47,0x3a,0x3a,0x53,0x45,0x08,0x3a,0x0a,0x40,0x6e,0x61,0x6d,0x65,0x49,0x22,0x09,0x4d,0x6f,0x76,0x65,0x06,0x3a,0x06,0x45,0x54,0x3a,0x0b,0x40,0x70,0x69,0x74,0x63,0x68,0x69,0x69,0x3a,0x0c,0x40,0x76,0x6f,0x6c,0x75,0x6d,0x65,0x69,0x55))
  TeleportPlayer(0,24,102,65,0,0)
  0()



EVENT   59
 PAGE   1
  250(bytes(0x04,0x08,0x6f,0x3a,0x0c,0x52,0x50,0x47,0x3a,0x3a,0x53,0x45,0x08,0x3a,0x0a,0x40,0x6e,0x61,0x6d,0x65,0x49,0x22,0x09,0x4d,0x6f,0x76,0x65,0x06,0x3a,0x06,0x45,0x54,0x3a,0x0b,0x40,0x70,0x69,0x74,0x63,0x68,0x69,0x69,0x3a,0x0c,0x40,0x76,0x6f,0x6c,0x75,0x6d,0x65,0x69,0x55))
  TeleportPlayer(0,24,102,89,0,0)
  0()



EVENT   60
 PAGE   1
  250(bytes(0x04,0x08,0x6f,0x3a,0x0c,0x52,0x50,0x47,0x3a,0x3a,0x53,0x45,0x08,0x3a,0x0a,0x40,0x6e,0x61,0x6d,0x65,0x49,0x22,0x09,0x4d,0x6f,0x76,0x65,0x06,0x3a,0x06,0x45,0x54,0x3a,0x0b,0x40,0x70,0x69,0x74,0x63,0x68,0x69,0x69,0x3a,0x0c,0x40,0x76,0x6f,0x6c,0x75,0x6d,0x65,0x69,0x55))
  TeleportPlayer(0,24,102,89,0,0)
  0()



EVENT   61
 PAGE   1
  250(bytes(0x04,0x08,0x6f,0x3a,0x0c,0x52,0x50,0x47,0x3a,0x3a,0x53,0x45,0x08,0x3a,0x0a,0x40,0x6e,0x61,0x6d,0x65,0x49,0x22,0x09,0x4d,0x6f,0x76,0x65,0x06,0x3a,0x06,0x45,0x54,0x3a,0x0b,0x40,0x70,0x69,0x74,0x63,0x68,0x69,0x69,0x3a,0x0c,0x40,0x76,0x6f,0x6c,0x75,0x6d,0x65,0x69,0x55))
  TeleportPlayer(0,24,102,89,0,0)
  0()



EVENT   62
 PAGE   1
  250(bytes(0x04,0x08,0x6f,0x3a,0x0c,0x52,0x50,0x47,0x3a,0x3a,0x53,0x45,0x08,0x3a,0x0a,0x40,0x6e,0x61,0x6d,0x65,0x49,0x22,0x09,0x4d,0x6f,0x76,0x65,0x06,0x3a,0x06,0x45,0x54,0x3a,0x0b,0x40,0x70,0x69,0x74,0x63,0x68,0x69,0x69,0x3a,0x0c,0x40,0x76,0x6f,0x6c,0x75,0x6d,0x65,0x69,0x55))
  TeleportPlayer(0,24,65,53,0,0)
  0()



EVENT   63
 PAGE   1
  250(bytes(0x04,0x08,0x6f,0x3a,0x0c,0x52,0x50,0x47,0x3a,0x3a,0x53,0x45,0x08,0x3a,0x0a,0x40,0x6e,0x61,0x6d,0x65,0x49,0x22,0x09,0x4d,0x6f,0x76,0x65,0x06,0x3a,0x06,0x45,0x54,0x3a,0x0b,0x40,0x70,0x69,0x74,0x63,0x68,0x69,0x69,0x3a,0x0c,0x40,0x76,0x6f,0x6c,0x75,0x6d,0x65,0x69,0x55))
  TeleportPlayer(0,24,66,53,0,0)
  0()



EVENT   64
 PAGE   1
  250(bytes(0x04,0x08,0x6f,0x3a,0x0c,0x52,0x50,0x47,0x3a,0x3a,0x53,0x45,0x08,0x3a,0x0a,0x40,0x6e,0x61,0x6d,0x65,0x49,0x22,0x09,0x4d,0x6f,0x76,0x65,0x06,0x3a,0x06,0x45,0x54,0x3a,0x0b,0x40,0x70,0x69,0x74,0x63,0x68,0x69,0x69,0x3a,0x0c,0x40,0x76,0x6f,0x6c,0x75,0x6d,0x65,0x69,0x55))
  TeleportPlayer(0,24,60,79,0,0)
  0()



EVENT   65
 PAGE   1
  250(bytes(0x04,0x08,0x6f,0x3a,0x0c,0x52,0x50,0x47,0x3a,0x3a,0x53,0x45,0x08,0x3a,0x0a,0x40,0x6e,0x61,0x6d,0x65,0x49,0x22,0x09,0x4d,0x6f,0x76,0x65,0x06,0x3a,0x06,0x45,0x54,0x3a,0x0b,0x40,0x70,0x69,0x74,0x63,0x68,0x69,0x69,0x3a,0x0c,0x40,0x76,0x6f,0x6c,0x75,0x6d,0x65,0x69,0x55))
  TeleportPlayer(0,24,61,79,0,0)
  0()



EVENT   66
 PAGE   1
  If(1,832,0,2,1)
   If(0,1581,1)
    ShowMessageFace("mob_kizoku_fc1",0,0,2,1)
    ShowMessage("\\n<Ophelia>Hey travelers, would you take me with you?")
    ShowChoices(strings("Invite her to the party","Refuse for now"),0)
    IfPlayerPicksChoice(0,null)
     ShowMessageFace("mob_kizoku_fc1",4,0,2,2)
     ShowMessage("\\n<Ophelia>Fufufu, thanks a lot.\nAdventuring sounds like a lot of fun...")
     PictureClear(5)
     205(0,bytes(0x04,0x08,0x6f,0x3a,0x13,0x52,0x50,0x47,0x3a,0x3a,0x4d,0x6f,0x76,0x65,0x52,0x6f,0x75,0x74,0x65,0x09,0x3a,0x0c,0x40,0x72,0x65,0x70,0x65,0x61,0x74,0x46,0x3a,0x0f,0x40,0x73,0x6b,0x69,0x70,0x70,0x61,0x62,0x6c,0x65,0x46,0x3a,0x0a,0x40,0x77,0x61,0x69,0x74,0x54,0x3a,0x0a,0x40,0x6c,0x69,0x73,0x74,0x5b,0x09,0x6f,0x3a,0x15,0x52,0x50,0x47,0x3a,0x3a,0x4d,0x6f,0x76,0x65,0x43,0x6f,0x6d,0x6d,0x61,0x6e,0x64,0x07,0x3a,0x0a,0x40,0x63,0x6f,0x64,0x65,0x69,0x2a,0x3a,0x10,0x40,0x70,0x61,0x72,0x61,0x6d,0x65,0x74,0x65,0x72,0x73,0x5b,0x00,0x6f,0x3b,0x0a,0x07,0x3b,0x0b,0x69,0x0f,0x3b,0x0c,0x5b,0x00,0x6f,0x3b,0x0a,0x07,0x3b,0x0b,0x69,0x2c,0x3b,0x0c,0x5b,0x00,0x6f,0x3b,0x0a,0x07,0x3b,0x0b,0x69,0x00,0x3b,0x0c,0x5b,0x00))
     355("add_actor_ex(581)")
     249(bytes(0x04,0x08,0x6f,0x3a,0x0c,0x52,0x50,0x47,0x3a,0x3a,0x4d,0x45,0x08,0x3a,0x0a,0x40,0x6e,0x61,0x6d,0x65,0x49,0x22,0x0c,0x66,0x61,0x6e,0x66,0x61,0x6c,0x65,0x06,0x3a,0x06,0x45,0x54,0x3a,0x0b,0x40,0x70,0x69,0x74,0x63,0x68,0x69,0x69,0x3a,0x0c,0x40,0x76,0x6f,0x6c,0x75,0x6d,0x65,0x69,0x69))
     ShowMessageFace("",0,0,2,3)
     ShowMessage("Ophelia has joined the party!")
     Wait(60)
     EndEventProcessing()
     0()
    IfPlayerPicksChoice(1,null)
     ShowMessageFace("mob_kizoku_fc1",7,0,2,4)
     ShowMessage("\\n<Ophelia>M-Meanie! How could you reject me!")
     0()
    404()
    0()
   EndIf()
   0()
  EndIf()
  RunCommonEvent(7311)
  0()
 PAGE   2
  // condition: party contains actor #581
  0()



EVENT   67
 PAGE   1
  ShowMessageFace("maidscyulla_fc1",1,0,2,1)
  ShowMessage("\\n<Maid>Lord Cassandra and her daughter Emily await you in the parlor. Please proceed straight ahead.")
  0()
 PAGE   2
  // condition: variable 1066 >= 3
  0()



EVENT   68
 PAGE   1
  ChangeSwitch(2158,2158,0)
  If(0,4,0)
   ShowMessageFace("",0,0,2,1)
   ShowMessage("\\n<Cassandra>Monster Lord Alipheese, what a sorry state you're in... Fufufufu...")
   ShowMessageFace("",0,0,2,2)
   ShowMessage("\\n<Emily>Ahaha! Mother, can we keep her?\nI've got the perfect cage...")
   ShowMessageFace("alice_fc5",2,0,2,3)
   ShowMessage("\\n<Alice>Curse you...")
   0()
  EndIf()
  If(0,5,0)
   ShowMessageFace("",0,0,2,4)
   ShowMessage("\\n<Cassandra>Did the little angel come out to play?\nYou better scurry back to Heaven before the bad monsters eat you, fufu.")
   ShowMessageFace("",0,0,2,5)
   ShowMessage("\\n<Emily>Mother, can I have half of her, at least?\nAhahaha...")
   ShowMessageFace("iriasu_fc4",7,0,2,6)
   ShowMessage("\\n<Ilias>How dare you mock me!")
   0()
  EndIf()
  0()
 PAGE   2
  // condition: switch 2158 is ON
  0()



EVENT   69
 PAGE   1
  ShowMessageFace("maidscyulla_fc1",1,0,2,1)
  ShowMessage("\\n<Maid>That is not the right way.\nLord Cassandra and her daughter Emily await you in the main room across from the entrance.")
  205(-1,bytes(0x04,0x08,0x6f,0x3a,0x13,0x52,0x50,0x47,0x3a,0x3a,0x4d,0x6f,0x76,0x65,0x52,0x6f,0x75,0x74,0x65,0x09,0x3a,0x0c,0x40,0x72,0x65,0x70,0x65,0x61,0x74,0x46,0x3a,0x0f,0x40,0x73,0x6b,0x69,0x70,0x70,0x61,0x62,0x6c,0x65,0x46,0x3a,0x0a,0x40,0x77,0x61,0x69,0x74,0x54,0x3a,0x0a,0x40,0x6c,0x69,0x73,0x74,0x5b,0x07,0x6f,0x3a,0x15,0x52,0x50,0x47,0x3a,0x3a,0x4d,0x6f,0x76,0x65,0x43,0x6f,0x6d,0x6d,0x61,0x6e,0x64,0x07,0x3a,0x0a,0x40,0x63,0x6f,0x64,0x65,0x69,0x08,0x3a,0x10,0x40,0x70,0x61,0x72,0x61,0x6d,0x65,0x74,0x65,0x72,0x73,0x5b,0x00,0x6f,0x3b,0x0a,0x07,0x3b,0x0b,0x69,0x00,0x3b,0x0c,0x5b,0x00))
  0()
 PAGE   2
  // condition: variable 1066 >= 3
  0()



EVENT   70
 PAGE   1
  ShowMessageFace("maidscyulla_fc1",1,0,2,1)
  ShowMessage("\\n<Maid>That is not the right way.\nLord Cassandra and her daughter Emily await you in the main room across from the entrance.")
  205(-1,bytes(0x04,0x08,0x6f,0x3a,0x13,0x52,0x50,0x47,0x3a,0x3a,0x4d,0x6f,0x76,0x65,0x52,0x6f,0x75,0x74,0x65,0x09,0x3a,0x0c,0x40,0x72,0x65,0x70,0x65,0x61,0x74,0x46,0x3a,0x0f,0x40,0x73,0x6b,0x69,0x70,0x70,0x61,0x62,0x6c,0x65,0x46,0x3a,0x0a,0x40,0x77,0x61,0x69,0x74,0x54,0x3a,0x0a,0x40,0x6c,0x69,0x73,0x74,0x5b,0x07,0x6f,0x3a,0x15,0x52,0x50,0x47,0x3a,0x3a,0x4d,0x6f,0x76,0x65,0x43,0x6f,0x6d,0x6d,0x61,0x6e,0x64,0x07,0x3a,0x0a,0x40,0x63,0x6f,0x64,0x65,0x69,0x08,0x3a,0x10,0x40,0x70,0x61,0x72,0x61,0x6d,0x65,0x74,0x65,0x72,0x73,0x5b,0x00,0x6f,0x3b,0x0a,0x07,0x3b,0x0b,0x69,0x00,0x3b,0x0c,0x5b,0x00))
  0()
 PAGE   2
  // condition: variable 1066 >= 3
  0()



EVENT   71
 PAGE   1
  ShowMessageFace("maidscyulla_fc1",1,0,2,1)
  ShowMessage("\\n<Maid>That is not the right way.\nLord Cassandra and her daughter Emily await you in the main room across from the entrance.")
  205(-1,bytes(0x04,0x08,0x6f,0x3a,0x13,0x52,0x50,0x47,0x3a,0x3a,0x4d,0x6f,0x76,0x65,0x52,0x6f,0x75,0x74,0x65,0x09,0x3a,0x0c,0x40,0x72,0x65,0x70,0x65,0x61,0x74,0x46,0x3a,0x0f,0x40,0x73,0x6b,0x69,0x70,0x70,0x61,0x62,0x6c,0x65,0x46,0x3a,0x0a,0x40,0x77,0x61,0x69,0x74,0x54,0x3a,0x0a,0x40,0x6c,0x69,0x73,0x74,0x5b,0x07,0x6f,0x3a,0x15,0x52,0x50,0x47,0x3a,0x3a,0x4d,0x6f,0x76,0x65,0x43,0x6f,0x6d,0x6d,0x61,0x6e,0x64,0x07,0x3a,0x0a,0x40,0x63,0x6f,0x64,0x65,0x69,0x07,0x3a,0x10,0x40,0x70,0x61,0x72,0x61,0x6d,0x65,0x74,0x65,0x72,0x73,0x5b,0x00,0x6f,0x3b,0x0a,0x07,0x3b,0x0b,0x69,0x00,0x3b,0x0c,0x5b,0x00))
  0()
 PAGE   2
  // condition: variable 1066 >= 3
  0()



EVENT   72
 PAGE   1
  ShowMessageFace("maidscyulla_fc1",1,0,2,1)
  ShowMessage("\\n<Maid>That is not the right way.\nLord Cassandra and her daughter Emily await you in the main room across from the entrance.")
  205(-1,bytes(0x04,0x08,0x6f,0x3a,0x13,0x52,0x50,0x47,0x3a,0x3a,0x4d,0x6f,0x76,0x65,0x52,0x6f,0x75,0x74,0x65,0x09,0x3a,0x0c,0x40,0x72,0x65,0x70,0x65,0x61,0x74,0x46,0x3a,0x0f,0x40,0x73,0x6b,0x69,0x70,0x70,0x61,0x62,0x6c,0x65,0x46,0x3a,0x0a,0x40,0x77,0x61,0x69,0x74,0x54,0x3a,0x0a,0x40,0x6c,0x69,0x73,0x74,0x5b,0x07,0x6f,0x3a,0x15,0x52,0x50,0x47,0x3a,0x3a,0x4d,0x6f,0x76,0x65,0x43,0x6f,0x6d,0x6d,0x61,0x6e,0x64,0x07,0x3a,0x0a,0x40,0x63,0x6f,0x64,0x65,0x69,0x07,0x3a,0x10,0x40,0x70,0x61,0x72,0x61,0x6d,0x65,0x74,0x65,0x72,0x73,0x5b,0x00,0x6f,0x3b,0x0a,0x07,0x3b,0x0b,0x69,0x00,0x3b,0x0c,0x5b,0x00))
  0()
 PAGE   2
  // condition: variable 1066 >= 3
  0()



EVENT   73
 PAGE   1
  ShowMessageFace("slime_fc1",0,0,2,1)
  ShowMessage("\\n<Slime Girl>The nearby mountains are so beautiful. ♪")
  0()



EVENT   74
 PAGE   1
  ShowMessageFace("slime_fc1",0,0,2,1)
  ShowMessage("\\n<Slime Girl>I want to throw a boomerang off the summit. ♪")
  ShowMessage("Yodel ay hee hoo ♪")
  0()



EVENT   75
 PAGE   1
  ShowMessageFace("",0,0,2,1)
  ShowMessage("\\n<Maid>If Cassandra had been at full strength, she would have chewed those insolent fools down to their bones.")
  355("actor_label_jump")
  EndEventProcessing()
  DefineLabel("295")
  ShowMessageFace("cassandra_fc1",5,0,2,2)
  ShowMessage("\\n<Cassandra>Fufu... It's fine.\nAs regrettable as it was, I get to enjoy this adventure now.")
  EndEventProcessing()
  0()



EVENT   76
 PAGE   1
  ShowMessageFace("",0,0,2,1)
  ShowMessage("\\n<Lady>Do you know about the highest job for merchants, doctors, dancers, maids, et cetera?")
  ShowMessageFace("",0,0,2,2)
  ShowMessage("\\n<Lady>It's called the All-Rounder.\nThey have all the features of support jobs, but nothing from the warrior and mage lines.")
  ShowMessageFace("",0,0,2,3)
  ShowMessage("\\n<Lady>You probably have to master lots of jobs to access it, but I imagine getting the required job change item is the real difficulty...")
  0()



EVENT   77
 PAGE   1
  ShowMessageFace("",0,0,2,1)
  ShowMessage("\\n<Lady>The highest alchemist job is the Golden Alchemist. Not only have they mastered alchemy, but they can refine legendary weapons too.")
  ShowMessageFace("",0,0,2,2)
  ShowMessage("\\n<Lady>You can fight with the legendary weapons refined during combat. They're extremely powerful and have weapon skills as well.")
  ShowMessageFace("",0,0,2,3)
  ShowMessage("\\n<Lady>They don't last forever though. You can only use them until that battle ends.")
  0()



EVENT   78
 PAGE   1
  ShowMessageFace("",0,0,2,1)
  ShowMessage("\\n<Traveling Warrior>I visited Succubus Village the other day, and man, that was a sight to see.")
  ShowMessageFace("",0,0,2,2)
  ShowMessage("\\n<Traveling Warrior>I heard there was a monster in town that was threatening the mayor, though. I got a bad feeling about it and got the hell out of there.")
  355("actor_label_jump")
  EndEventProcessing()
  DefineLabel("287")
  ShowMessageFace("succubus_fc1",0,0,2,3)
  ShowMessage("\\n<Succubus>I'm glad you didn't get caught up in that mess.\nA veritable army of succubi attacked the village.")
  ShowMessageFace("",0,0,2,4)
  ShowMessage("\\n<Traveling Warrior>S-Seriously!?\nDammit, why didn't I stay longer?!")
  EndEventProcessing()
  0()



EVENT   79
 PAGE   1
  ShowMessageFace("",0,0,2,1)
  ShowMessage("\\n<Noble Woman>To the southeast of here is Succubus Village, a dump full of filthy imps.")
  355("actor_label_jump")
  EndEventProcessing()
  DefineLabel("281")
  ShowMessageFace("succubuses_fc1",2,0,2,2)
  ShowMessage("\\n<Harem>That's not nice!")
  EndEventProcessing()
  DefineLabel("287")
  ShowMessageFace("succubus_fc1",0,0,2,3)
  ShowMessage("\\n<Succubus>We succubi are subject to discrimination like that because of our nature. That's why it's so important for us to have a safe place to live.")
  EndEventProcessing()
  0()



EVENT   80
 PAGE   1
  ShowMessageFace("",0,0,2,1)
  ShowMessage("\\n<Lady>I came to this village with my daughter to relax. The plain houses, beautiful views... This place is wonderful.")
  0()



EVENT   81
 PAGE   1
  ShowMessageFace("",0,0,2,1)
  ShowMessage("\\n<Soldier>Aaah... So good...")
  205(80,bytes(0x04,0x08,0x6f,0x3a,0x13,0x52,0x50,0x47,0x3a,0x3a,0x4d,0x6f,0x76,0x65,0x52,0x6f,0x75,0x74,0x65,0x09,0x3a,0x0c,0x40,0x72,0x65,0x70,0x65,0x61,0x74,0x46,0x3a,0x0f,0x40,0x73,0x6b,0x69,0x70,0x70,0x61,0x62,0x6c,0x65,0x46,0x3a,0x0a,0x40,0x77,0x61,0x69,0x74,0x54,0x3a,0x0a,0x40,0x6c,0x69,0x73,0x74,0x5b,0x07,0x6f,0x3a,0x15,0x52,0x50,0x47,0x3a,0x3a,0x4d,0x6f,0x76,0x65,0x43,0x6f,0x6d,0x6d,0x61,0x6e,0x64,0x07,0x3a,0x0a,0x40,0x63,0x6f,0x64,0x65,0x69,0x16,0x3a,0x10,0x40,0x70,0x61,0x72,0x61,0x6d,0x65,0x74,0x65,0x72,0x73,0x5b,0x00,0x6f,0x3b,0x0a,0x07,0x3b,0x0b,0x69,0x00,0x3b,0x0c,0x5b,0x00))
  ShowMessageFace("",0,0,2,2)
  ShowMessage("\\n<Lady>He was last night's dinner.\nDon't worry, he'll live...")
  205(80,bytes(0x04,0x08,0x6f,0x3a,0x13,0x52,0x50,0x47,0x3a,0x3a,0x4d,0x6f,0x76,0x65,0x52,0x6f,0x75,0x74,0x65,0x09,0x3a,0x0c,0x40,0x72,0x65,0x70,0x65,0x61,0x74,0x46,0x3a,0x0f,0x40,0x73,0x6b,0x69,0x70,0x70,0x61,0x62,0x6c,0x65,0x46,0x3a,0x0a,0x40,0x77,0x61,0x69,0x74,0x54,0x3a,0x0a,0x40,0x6c,0x69,0x73,0x74,0x5b,0x07,0x6f,0x3a,0x15,0x52,0x50,0x47,0x3a,0x3a,0x4d,0x6f,0x76,0x65,0x43,0x6f,0x6d,0x6d,0x61,0x6e,0x64,0x07,0x3a,0x0a,0x40,0x63,0x6f,0x64,0x65,0x69,0x15,0x3a,0x10,0x40,0x70,0x61,0x72,0x61,0x6d,0x65,0x74,0x65,0x72,0x73,0x5b,0x00,0x6f,0x3b,0x0a,0x07,0x3b,0x0b,0x69,0x00,0x3b,0x0c,0x5b,0x00))
  0()



EVENT   82
 PAGE   1
  If(1,1078,0,4,2)
   ShowMessageFace("",0,0,2,1)
   ShowMessage("\\n<Female Mage>The magical girl selection ceremony will be held soon in Goddard. I'm here stocking up on items I need for it.")
   0()
  EndIf()
  If(1,1078,0,5,1)
   ShowMessageFace("",0,0,2,2)
   ShowMessage("\\n<Female Mage>I flamed out spectacularly at the magical girl selection. That famous Witch Succubus creamed me.")
   355("actor_label_jump")
   EndEventProcessing()
   DefineLabel("286")
   ShowMessageFace("witchs_fc1",0,0,2,3)
   ShowMessage("\\n<Witch>Do I owe you an apology...?")
   ShowMessageFace("",0,0,2,4)
   ShowMessage("\\n<Female Mage>No, I simply wasn't strong enough.\nIt wasn't your fault...")
   0()
  EndIf()
  0()



EVENT   83
 PAGE   1
  ShowMessageFace(binary"",0,0,2,1)
  ShowMessage("\\n<Black Mage>I tried entering Gold Volcano, but the interior is full of magma. There's no way I was going in there without a way to deal with the damage floors.")
  0()



EVENT   84
 PAGE   1
  ShowMessageFace("",0,0,2,1)
  ShowMessage("\\n<Huntress>There's a Tartarus rift in the western desert region, but it's so hard to reach that even the investigators haven't been able to explore it.")
  ShowMessageFace("",0,0,2,2)
  ShowMessage("\\n<Huntress>We're going to try, though.\nWe'll be famous if we manage to bring back some treasure and artifacts.")
  0()
 PAGE   2
  // condition: variable 1001 >= 28
  0()



EVENT   85
 PAGE   1
  ShowMessageFace("",0,0,2,1)
  ShowMessage("\\n<Huntress>We were going to the desert region next, but we heard some interesting rumors. We're going to stop by an old shrine to the north first.")
  ShowMessageFace("",0,0,2,2)
  ShowMessage("\\n<Huntress>According to legends, it's called the Holy Wings Shrine, but since the legends seem to be passed down from monsters, we didn't get any real details.")
  ShowMessageFace("",0,0,2,3)
  ShowMessage("\\n<Huntress>There are also some strange ruins in the desert's southwest part... There have been sightings of bizarre monsters and a woman in a white coat there.")
  ShowMessageFace("",0,0,2,4)
  ShowMessage("\\n<Huntress>It's theorized that those sightings are related to the nearby rift. So we've got to go there and check things out for ourselves!")
  If(4,41,0)
   ShowMessageFace("stein_fc2",0,0,2,5)
   ShowMessage("\\n<Promestein>A woman in a white coat...?")
   0()
  EndIf()
  0()
 PAGE   2
  // condition: variable 1001 >= 28
  0()



EVENT   86
 PAGE   1
  ShowMessageFace("",0,0,2,1)
  ShowMessage("\\n<Explorer>We're a group of explorers who go where no man has gone before. We plan to thoroughly investigate the western desert region next.")
  ShowMessageFace("",0,0,2,2)
  ShowMessage("\\n<Explorer>To get there, we have to cross the Nightmare Wastes, but we'll manage somehow and conquer the desert!")
  0()
 PAGE   2
  // condition: variable 1001 >= 28
  0()



EVENT   87
 PAGE   1
  ShowMessageFace("",0,0,2,1)
  ShowMessage("\\n<Elf Mage>We should probably recruit a few more party members to defeat the Monster Lord...")
  0()



EVENT   88
 PAGE   1
  ShowMessageFace("",0,0,2,1)
  ShowMessage("\\n<Northern Hero>I'm known as the Northern Hero in my home village. I'm gathering party members to attack the Monster Lord's castle and defeat the Monster Lord!")
  0()



EVENT   89
 PAGE   1
  ShowMessageFace("",0,0,2,1)
  ShowMessage("\\n<Inn Reception>Welcome. It's 15G per night.\nWould you like a room?\\$")
  ShowChoices(strings("Yes","No"),2)
  IfPlayerPicksChoice(0,null)
   If(7,15,0)
    125(1,0,15)
    221()
    249(bytes(0x04,0x08,0x6f,0x3a,0x0c,0x52,0x50,0x47,0x3a,0x3a,0x4d,0x45,0x08,0x3a,0x0a,0x40,0x6e,0x61,0x6d,0x65,0x49,0x22,0x08,0x49,0x6e,0x6e,0x06,0x3a,0x06,0x45,0x54,0x3a,0x0b,0x40,0x70,0x69,0x74,0x63,0x68,0x69,0x69,0x3a,0x0c,0x40,0x76,0x6f,0x6c,0x75,0x6d,0x65,0x69,0x69))
    Wait(150)
    314(0,0)
    222()
    0()
   Else()
    ShowMessageFace("",0,0,2,2)
    ShowMessage("\\n<Inn Reception>Sorry, but you don't have enough money.")
    0()
   EndIf()
   0()
  IfPlayerPicksChoice(1,null)
   0()
  404()
  EndEventProcessing()
  0()



EVENT   90
 PAGE   1
  ShowMessageFace("",0,0,2,1)
  ShowMessage("\\n<Weapon Dealer>I came here from Succubus Village to sell weapons. I'm afraid to say I have the same weapons to sell, though.")
  Shop(1,23,0,0,false)
  605(1,248,0,0)
  605(1,880,0,0)
  605(2,25,0,0)
  605(2,170,0,0)
  0()



EVENT   91
 PAGE   1
  ShowMessageFace("",0,0,2,1)
  ShowMessage("\\n<Insect Lady>We aren't allowed to attack male adventurers anymore, so I'm living on a completely normal diet.")
  0()



EVENT   92
 PAGE   1
  ShowMessageFace("",0,0,2,1)
  ShowMessage("\\n<Lady>Many ladies here can't cook or support themselves at all. It's pitiful to be stuck eating out at cheap restaurants.")
  355("actor_label_jump")
  EndEventProcessing()
  DefineLabel("64")
  ShowMessageFace("pramia_fc1",0,0,2,2)
  ShowMessage("\\n<Teeny>I could teach you how to cook...")
  EndEventProcessing()
  DefineLabel("289")
  ShowMessageFace("maidscyulla_fc1",1,0,2,3)
  ShowMessage("\\n<Ran>How about taking a job as a maid?")
  EndEventProcessing()
  0()



EVENT   93
 PAGE   1
  ShowMessageFace("",0,0,2,1)
  ShowMessage("\\n<Restaurant Woman>Welcome to the Variety Eatery. Don't worry, we serve normal meals to male customers.")
  Shop(0,361,0,0,false)
  605(0,364,0,0)
  605(0,365,0,0)
  605(0,367,0,0)
  605(0,381,0,0)
  0()



EVENT   94
 PAGE   1
  ShowMessageFace("",0,0,2,1)
  ShowMessage("\\n<Traveling Swordsman>We need to get to the Monster Lord's castle, but the whole continent of Hellgondo is surrounded by mountains. There's only one pass through the mountains, and it's caved in...")
  ShowMessageFace("",0,0,2,2)
  ShowMessage("\\n<Traveling Swordsman>There's no way to get there if you can't fly, and you'd have to be a better flier than a harpy to make it...")
  355("actor_label_jump")
  EndEventProcessing()
  DefineLabel("83")
  ShowMessageFace("hapy_a_fc1",2,0,2,3)
  ShowMessage("\\n<Reina>It would definitely be reckless to cross those mountains. Even if I made it, I could be attacked by other monsters after exhausting myself.")
  EndEventProcessing()
  DefineLabel("259")
  ShowMessageFace("w_hapy_fc1",0,0,2,4)
  ShowMessage("\\n<Wings>It'd be crazy to cross those mountains with my wings...")
  EndEventProcessing()
  0()



EVENT   95
 PAGE   1
  ShowMessageFace("",0,0,2,1)
  ShowMessage("\\n<Traveling Priest>A frozen continent arose from the ocean to the west in the Great Disaster 30 years ago. I wonder what could possibly be there?")
  ShowMessageFace("",0,0,2,2)
  ShowMessage("\\n<Traveling Priest>No one has set foot on the continent yet, so it should be devoid of people, yet there are reports of buildings that look like towns and towers there.")
  ShowMessageFace("",0,0,2,3)
  ShowMessage("\\n<Traveling Priest>So many interesting mysteries...")
  355("actor_label_jump")
  EndEventProcessing()
  DefineLabel("221")
  ShowMessageFace("yukionna_fc1",1,0,2,4)
  ShowMessage("\\n<Oyuki>It sounds like a nice place to live.")
  EndEventProcessing()
  DefineLabel("383")
  ShowMessageFace("eden_fc1",1,0,2,5)
  ShowMessage("\\n<Eden>That land is where we angels reside. You shouldn't travel there without permission.")
  EndEventProcessing()
  DefineLabel("354")
  ShowMessageFace("shirokuma_fc1",0,0,2,6)
  ShowMessage("\\n<Knoot>We polar bears live there...")
  ShowMessageFace("",0,0,2,7)
  ShowMessage("\\n<Traveling Priest>Is-is that so?")
  EndEventProcessing()
  0()



EVENT   96
 PAGE   1
  ShowMessageFace("",0,0,2,1)
  ShowMessage("\\n<Umbrella Lady>Alipheese the 17th showed up in this village a while back. Her power was absolutely ludicrous.")
  ShowMessageFace("",0,0,2,2)
  ShowMessage("\\n<Umbrella Lady>Between her skill with a sword and her magic, I couldn't help but feel she's even more powerful than the Monster Lord.")
  0()



EVENT   97
 PAGE   1
  ShowMessageFace("",0,0,2,1)
  ShowMessage("\\n<Insect Lady>I used to lure adventurers into this house and consume them. The face of a man as his strength fades while he loses himself in pleasure is something to behold...")
  ShowMessageFace("",0,0,2,2)
  ShowMessage("\\n<Insect Lady>I don't suck them to death anymore, though. After I've drained enough, I just toss them out.")
  0()



EVENT   98
 PAGE   1
  ShowMessageFace("",0,0,2,1)
  ShowMessage("\\n<Umbrella Lady>How can I add more elegance to my attire...?")
  0()



EVENT   99
 PAGE   1
  ShowMessageFace("",0,0,2,1)
  ShowMessage("\\n<Insect Lady>This hat is completely out of fashion...")
  355("actor_label_jump")
  EndEventProcessing()
  DefineLabel("55")
  ShowMessageFace("name_fc1",0,0,2,2)
  ShowMessage("\\n<Melk>How about my slug hat?")
  ShowMessageFace("",0,0,2,3)
  ShowMessage("\\n<Insect Lady>Oh dear, that one's fantastic.")
  EndEventProcessing()
  0()



EVENT   100
 PAGE   1
  ShowMessageFace(binary"",0,0,2,1)
  ShowMessage("\\n<Merchant>Have you heard of the legendary blacksmith Randolph?\nHe's human, but they say he's a better smith than any monster.")
  ShowMessageFace(binary"",0,0,2,2)
  ShowMessage("\\n<Merchant>He travels around, so I wonder where he is right now.\nIt's also possible than he's long dead, I guess...")
  0()



EVENT   101
 PAGE   1
  ShowMessageFace("",0,0,2,1)
  ShowMessage("\\n<Traveling Warrior>All the adventurers in this town are pretty strong, which makes sense considering how difficult it is to get here.")
  0()



EVENT   102
 PAGE   1
  ShowMessageFace("",0,0,2,1)
  ShowMessage("\\n<Madame Insect>I'm so deep in debt that I had to take this job. It's so demeaning...")
  355("actor_label_jump")
  EndEventProcessing()
  DefineLabel("143")
  ShowMessageFace("eva_fc1",2,0,2,2)
  ShowMessage("\\n<Eva>You think this is demeaning?\nYou have no idea what true shame is like!")
  ShowMessageFace("",0,0,2,3)
  ShowMessage("\\n<Madame Insect>M-My apologies...")
  EndEventProcessing()
  0()



EVENT   103
 PAGE   1
  ShowMessageFace("",0,0,2,1)
  ShowMessage("\\n<Madame Umbrella>The paella here is delicious.... Ufufu.")
  0()



EVENT   104
 PAGE   1
  ShowMessageFace("",0,0,2,1)
  ShowMessage("\\n<Maid>I'm busy preparing meals... ♪")
  0()



EVENT   105
 PAGE   1
  ShowMessageFace("",0,0,2,1)
  ShowMessage("\\n<Maid>The men who provide the food here do so of their own volition. We guarantee their safety as well as provide them with a salary and pleasure.")
  0()



EVENT   106
 PAGE   1
  ShowMessageFace("",0,0,2,1)
  ShowMessage("\\n<Youth>Hauuu...\nWhy'd she have to milk me so many times...")
  0()



EVENT   107
 PAGE   1
  If(1,1066,0,4,2)
   ShowMessageFace("",0,0,2,1)
   ShowMessage("\\n<Maid>Lord Cassandra and Emily are both very kind. That's why it's so painful to see what happened to them...")
   EndEventProcessing()
   0()
  EndIf()
  If(1,1066,0,5,0)
   ShowMessageFace("",0,0,2,2)
   ShowMessage("\\n<Maid>I'm so glad everything worked out in the end. Lord Cassandra seems so happy too...")
   355("actor_label_jump")
   EndEventProcessing()
   DefineLabel("295")
   ShowMessageFace("cassandra_fc1",5,0,2,3)
   ShowMessage("\\n<Cassandra>Ufufufu...")
   EndEventProcessing()
   0()
  EndIf()
  0()



EVENT   108
 PAGE   1
  ShowMessageFace("",0,0,2,1)
  ShowMessage("\\n<Maid>Head Maid Ran is very strict...\nI've lost count of how many maids she's eaten for making mistakes.")
  355("actor_label_jump")
  EndEventProcessing()
  DefineLabel("289")
  ShowMessageFace("maidscyulla_fc1",1,0,2,2)
  ShowMessage("\\n<Ran>The clumsy maids don't taste very good, though...")
  EndEventProcessing()
  0()



EVENT   109
 PAGE   1
  ShowMessageFace("",0,0,2,1)
  ShowMessage("\\n<Maid>We haven't been getting any guests at all lately.\nThere's no point making beds that no one sleeps in.")
  0()



EVENT   110
 PAGE   1
  ShowMessageFace("",0,0,2,1)
  ShowMessage("\\n<Maid>Oh? Already crying uncle?\nYou only get paid if you can ejaculate 7 more times, though.")
  0()



EVENT   111
 PAGE   1
  ShowMessageFace("",0,0,2,1)
  ShowMessage("\\n<Soldier>Eeeek... No more...")
  0()



EVENT   112
 PAGE   1
  ShowMessageFace("",0,0,2,1)
  ShowMessage("\\n<Maid>This is Lord Cassandra's room.\nYou better not go inside...")
  0()



EVENT   113
 PAGE   1
  ShowMessageFace("",0,0,2,1)
  ShowMessage("\\n<Maid>This is Miss Emily's room.\nYou better not go inside...")
  0()



EVENT   114
 PAGE   1
  ShowMessageFace("",0,0,2,1)
  ShowMessage("\\n<Maid>Miss Emily longs to be an idol.\nShe dreams of leaving this village and debuting on the world stage.")
  355("actor_label_jump")
  EndEventProcessing()
  DefineLabel("294")
  ShowMessageFace("emily_fc1",2,0,2,2)
  ShowMessage("\\n<Emily>Just you wait!\nI'll be a top idol the next time you see me! ♪")
  EndEventProcessing()
  0()



EVENT   115
 PAGE   1
  ShowMessageFace("",0,0,2,1)
  ShowMessage("\\n<Maid>My job is to clean the gunk off the floors, but this stickiness never really washes out.")
  0()



EVENT   116
 PAGE   1
  ShowMessageFace("",0,0,2,1)
  ShowMessage("\\n<Maid>We're here to perform our duties no matter what our master looks like.")
  0()



EVENT   117
 PAGE   1
  // condition: switch 33 is ON
  0()
 PAGE   2
  // condition: variable 1066 >= 3
  0()



EVENT   118
 PAGE   1
  250(bytes(0x04,0x08,0x6f,0x3a,0x0c,0x52,0x50,0x47,0x3a,0x3a,0x53,0x45,0x08,0x3a,0x0a,0x40,0x6e,0x61,0x6d,0x65,0x49,0x22,0x0a,0x49,0x74,0x65,0x6d,0x31,0x06,0x3a,0x06,0x45,0x54,0x3a,0x0b,0x40,0x70,0x69,0x74,0x63,0x68,0x69,0x69,0x3a,0x0c,0x40,0x76,0x6f,0x6c,0x75,0x6d,0x65,0x69,0x55))
  ChangeSelfSwitch("A",0)
  ChangeInventory_Item(32,0,0,1)
  0()
 PAGE   2
  // condition: self-switch A is ON
  0()



EVENT   119
 PAGE   1
  250(bytes(0x04,0x08,0x6f,0x3a,0x0c,0x52,0x50,0x47,0x3a,0x3a,0x53,0x45,0x08,0x3a,0x0a,0x40,0x6e,0x61,0x6d,0x65,0x49,0x22,0x0a,0x49,0x74,0x65,0x6d,0x31,0x06,0x3a,0x06,0x45,0x54,0x3a,0x0b,0x40,0x70,0x69,0x74,0x63,0x68,0x69,0x69,0x3a,0x0c,0x40,0x76,0x6f,0x6c,0x75,0x6d,0x65,0x69,0x55))
  ChangeSelfSwitch("A",0)
  ChangeInventory_Item(218,0,0,1)
  0()
 PAGE   2
  // condition: self-switch A is ON
  0()



EVENT   120
 PAGE   1
  250(bytes(0x04,0x08,0x6f,0x3a,0x0c,0x52,0x50,0x47,0x3a,0x3a,0x53,0x45,0x08,0x3a,0x0a,0x40,0x6e,0x61,0x6d,0x65,0x49,0x22,0x0a,0x49,0x74,0x65,0x6d,0x31,0x06,0x3a,0x06,0x45,0x54,0x3a,0x0b,0x40,0x70,0x69,0x74,0x63,0x68,0x69,0x69,0x3a,0x0c,0x40,0x76,0x6f,0x6c,0x75,0x6d,0x65,0x69,0x55))
  ChangeSelfSwitch("A",0)
  ChangeInventory_Item(404,0,0,1)
  0()
 PAGE   2
  // condition: self-switch A is ON
  0()



EVENT   121
 PAGE   1
  250(bytes(0x04,0x08,0x6f,0x3a,0x0c,0x52,0x50,0x47,0x3a,0x3a,0x53,0x45,0x08,0x3a,0x0a,0x40,0x6e,0x61,0x6d,0x65,0x49,0x22,0x0a,0x49,0x74,0x65,0x6d,0x31,0x06,0x3a,0x06,0x45,0x54,0x3a,0x0b,0x40,0x70,0x69,0x74,0x63,0x68,0x69,0x69,0x3a,0x0c,0x40,0x76,0x6f,0x6c,0x75,0x6d,0x65,0x69,0x55))
  ChangeSelfSwitch("A",0)
  ChangeInventory_Item(22,0,0,1)
  0()
 PAGE   2
  // condition: self-switch A is ON
  0()



EVENT   122
 PAGE   1
  250(bytes(0x04,0x08,0x6f,0x3a,0x0c,0x52,0x50,0x47,0x3a,0x3a,0x53,0x45,0x08,0x3a,0x0a,0x40,0x6e,0x61,0x6d,0x65,0x49,0x22,0x0a,0x49,0x74,0x65,0x6d,0x31,0x06,0x3a,0x06,0x45,0x54,0x3a,0x0b,0x40,0x70,0x69,0x74,0x63,0x68,0x69,0x69,0x3a,0x0c,0x40,0x76,0x6f,0x6c,0x75,0x6d,0x65,0x69,0x55))
  ChangeSelfSwitch("A",0)
  ChangeInventory_Item(2,0,0,1)
  0()
 PAGE   2
  // condition: self-switch A is ON
  0()



EVENT   123
 PAGE   1
  250(bytes(0x04,0x08,0x6f,0x3a,0x0c,0x52,0x50,0x47,0x3a,0x3a,0x53,0x45,0x08,0x3a,0x0a,0x40,0x6e,0x61,0x6d,0x65,0x49,0x22,0x0a,0x49,0x74,0x65,0x6d,0x31,0x06,0x3a,0x06,0x45,0x54,0x3a,0x0b,0x40,0x70,0x69,0x74,0x63,0x68,0x69,0x69,0x3a,0x0c,0x40,0x76,0x6f,0x6c,0x75,0x6d,0x65,0x69,0x55))
  ChangeSelfSwitch("A",0)
  ChangeInventory_Item(214,0,0,1)
  0()
 PAGE   2
  // condition: self-switch A is ON
  0()



EVENT   124
 PAGE   1
  250(bytes(0x04,0x08,0x6f,0x3a,0x0c,0x52,0x50,0x47,0x3a,0x3a,0x53,0x45,0x08,0x3a,0x0a,0x40,0x6e,0x61,0x6d,0x65,0x49,0x22,0x0a,0x49,0x74,0x65,0x6d,0x31,0x06,0x3a,0x06,0x45,0x54,0x3a,0x0b,0x40,0x70,0x69,0x74,0x63,0x68,0x69,0x69,0x3a,0x0c,0x40,0x76,0x6f,0x6c,0x75,0x6d,0x65,0x69,0x55))
  ChangeSelfSwitch("A",0)
  ChangeInventory_Item(29,0,0,1)
  0()
 PAGE   2
  // condition: self-switch A is ON
  0()



EVENT   125
 PAGE   1
  250(bytes(0x04,0x08,0x6f,0x3a,0x0c,0x52,0x50,0x47,0x3a,0x3a,0x53,0x45,0x08,0x3a,0x0a,0x40,0x6e,0x61,0x6d,0x65,0x49,0x22,0x0a,0x49,0x74,0x65,0x6d,0x31,0x06,0x3a,0x06,0x45,0x54,0x3a,0x0b,0x40,0x70,0x69,0x74,0x63,0x68,0x69,0x69,0x3a,0x0c,0x40,0x76,0x6f,0x6c,0x75,0x6d,0x65,0x69,0x55))
  ChangeSelfSwitch("A",0)
  ChangeInventory_Item(361,0,0,1)
  0()
 PAGE   2
  // condition: self-switch A is ON
  0()



EVENT   126
 PAGE   1
  0()
